2024-05-30 16:53:29,811 INFO     [helpers.py:188] Loading pretrained weights from url (https://github.com/rwightman/pytorch-image-models/releases/download/v0.1-weights/mobilenetv2_100_ra-b33bc2c4.pth)
2024-05-30 16:53:30,358 INFO     [stereo_datasets.py:346] Adding 197 samples from SCARED
2024-05-30 16:53:30,360 INFO     [stereo_datasets.py:364] Training with 197 image pairs
  0%|          | 0/197 [00:00<?, ?it/s]/mnt/cluster/environments/liuliwen/miniconda3/envs/IGEV_Stereo/lib/python3.8/site-packages/torch/nn/modules/conv.py:456: UserWarning: Plan failed with a cudnnException: CUDNN_BACKEND_EXECUTION_PLAN_DESCRIPTOR: cudnnFinalize Descriptor Failed cudnn_status: CUDNN_STATUS_NOT_SUPPORTED (Triggered internally at /opt/conda/conda-bld/pytorch_1712608851799/work/aten/src/ATen/native/cudnn/Conv_v8.cpp:919.)
  return F.conv2d(input, weight, bias, self.stride,
/mnt/cluster/environments/liuliwen/miniconda3/envs/IGEV_Stereo/lib/python3.8/site-packages/torch/nn/modules/conv.py:605: UserWarning: Plan failed with a cudnnException: CUDNN_BACKEND_EXECUTION_PLAN_DESCRIPTOR: cudnnFinalize Descriptor Failed cudnn_status: CUDNN_STATUS_NOT_SUPPORTED (Triggered internally at /opt/conda/conda-bld/pytorch_1712608851799/work/aten/src/ATen/native/cudnn/Conv_v8.cpp:919.)
  return F.conv3d(
/mnt/cluster/environments/liuliwen/miniconda3/envs/IGEV_Stereo/lib/python3.8/site-packages/torch/nn/_reduction.py:42: UserWarning: size_average and reduce args will be deprecated, please use reduction='mean' instead.
  warnings.warn(warning.format(ret))
/mnt/cluster/environments/liuliwen/miniconda3/envs/IGEV_Stereo/lib/python3.8/site-packages/torch/optim/lr_scheduler.py:143: UserWarning: Detected call of `lr_scheduler.step()` before `optimizer.step()`. In PyTorch 1.1.0 and later, you should call them in the opposite order: `optimizer.step()` before `lr_scheduler.step()`.  Failure to do this will result in PyTorch skipping the first value of the learning rate schedule. See more details at https://pytorch.org/docs/stable/optim.html#how-to-adjust-learning-rate
  warnings.warn("Detected call of `lr_scheduler.step()` before `optimizer.step()`. "
  1%|          | 1/197 [00:05<16:43,  5.12s/it]  1%|          | 2/197 [00:05<08:03,  2.48s/it]  2%|▏         | 3/197 [00:06<05:02,  1.56s/it]  2%|▏         | 4/197 [00:06<03:36,  1.12s/it]  3%|▎         | 5/197 [00:07<02:45,  1.16it/s]  3%|▎         | 6/197 [00:07<02:12,  1.44it/s]  4%|▎         | 7/197 [00:08<02:19,  1.37it/s]/mnt/ceph/tco/TCO-Students/Homes/liwenliu/projs/stereo_depths_hiwi/IGEV/IGEV-Stereo/core/utils/augmentor.py:253: RuntimeWarning: overflow encountered in cast
  flow_img[yy, xx] = flow1
/mnt/ceph/tco/TCO-Students/Homes/liwenliu/projs/stereo_depths_hiwi/IGEV/IGEV-Stereo/core/utils/augmentor.py:253: RuntimeWarning: overflow encountered in cast
  flow_img[yy, xx] = flow1
/mnt/cluster/environments/liuliwen/miniconda3/envs/IGEV_Stereo/lib/python3.8/site-packages/torch/nn/modules/conv.py:952: UserWarning: Plan failed with a cudnnException: CUDNN_BACKEND_EXECUTION_PLAN_DESCRIPTOR: cudnnFinalize Descriptor Failed cudnn_status: CUDNN_STATUS_NOT_SUPPORTED (Triggered internally at /opt/conda/conda-bld/pytorch_1712608851799/work/aten/src/ATen/native/cudnn/Conv_v8.cpp:919.)
  return F.conv_transpose2d(
  4%|▎         | 7/197 [00:09<04:21,  1.37s/it]
Traceback (most recent call last):
  File "/mnt/ceph/tco/TCO-Students/Homes/liwenliu/projs/stereo_depths_hiwi/IGEV/IGEV-Stereo/train_stereo.py", line 259, in <module>
    train(args)
  File "/mnt/ceph/tco/TCO-Students/Homes/liwenliu/projs/stereo_depths_hiwi/IGEV/IGEV-Stereo/train_stereo.py", line 158, in train
    loss, metrics = sequence_loss(disp_preds, disp_init_pred, disp_gt, valid, max_disp=args.max_disp)
  File "/mnt/ceph/tco/TCO-Students/Homes/liwenliu/projs/stereo_depths_hiwi/IGEV/IGEV-Stereo/train_stereo.py", line 46, in sequence_loss
    disp_loss += 1.0 * F.smooth_l1_loss(disp_init_pred[valid.bool()], disp_gt[valid.bool()], size_average=True)
IndexError: The shape of the mask [1, 1, 320, 0] at index 3 does not match the shape of the indexed tensor [1, 1, 320, 96] at index 3
